{
    "key": "group_61d762d669d8b",
    "title": "כותרת משנה",
    "fields": [
        {
            "key": "field_61d7622c820d3",
            "label": "כותרת משנה",
            "name": "about_subtitle",
            "type": "text",
            "instructions": "",
            "required": 0,
            "conditional_logic": 0,
            "wrapper": {
                "width": "",
                "class": "",
                "id": ""
            },
            "wpml_cf_preferences": 0,
            "default_value": "",
            "placeholder": "",
            "prepend": "",
            "append": "",
            "maxlength": ""
        }
    ],
    "location": [
        [
            {
                "param": "page_template",
                "operator": "==",
                "value": "views\/about.php"
            }
        ],
        [
            {
                "param": "page_template",
                "operator": "==",
                "value": "views\/contact.php"
            }
        ],
        [
            {
                "param": "page_template",
                "operator": "==",
                "value": "views\/gallery.php"
            }
        ]
    ],
    "menu_order": 0,
    "position": "acf_after_title",
    "style": "default",
    "label_placement": "top",
    "instruction_placement": "label",
    "hide_on_screen": "",
    "active": true,
    "description": "",
    "show_in_rest": 0,
    "modified": 1641744878
}